{
"skeleton": {
	"hash": "U/6hDBlJx8m2RdJNNTzYz5aNbKg",
	"spine": "3.8.99",
	"x": -279.2,
	"y": -138.47,
	"width": 551,
	"height": 380,
	"images": "./Image/",
	"audio": "D:/HiepAnim_Drive/OneDrive - DoreAzure/ThanhNN/Mario Game/E6/Image"
},
"bones": [
	{ "name": "root" },
	{ "name": "bone", "parent": "root", "length": 557.14, "rotation": -90 },
	{ "name": "bone2", "parent": "bone", "x": -28.85, "y": 2.92 },
	{ "name": "R_eye", "parent": "bone2", "length": 143.01, "rotation": -90, "x": -11.58, "y": 83.76 },
	{ "name": "Body", "parent": "R_eye", "length": 128.75, "rotation": -1.52, "x": -11.58, "y": 16.34 },
	{ "name": "Body2", "parent": "R_eye", "length": 217.29, "rotation": -1.26, "x": 117.13, "y": 12.94 },
	{ "name": "R_eye3", "parent": "R_eye", "length": 45.43, "rotation": -77.01, "x": 217.92, "y": -39.5 },
	{ "name": "L_eye", "parent": "R_eye", "length": 42.64, "rotation": -63.43, "x": 303.73, "y": -44.27 },
	{ "name": "Tail_1", "parent": "Body", "length": 89.01, "rotation": -169.24, "x": -23.24, "y": 2.79 },
	{ "name": "Mouth", "parent": "R_eye", "length": 261.19, "rotation": -7.79, "x": 97.38, "y": 105.55 },
	{ "name": "Body3", "parent": "R_eye", "length": 39.3, "rotation": -117.9, "x": 137.56, "y": -147.78 },
	{ "name": "Body4", "parent": "R_eye", "length": 32.3, "rotation": 137.56, "x": 14.98, "y": 133.48 }
],
"slots": [
	{ "name": "Tail_2", "bone": "Tail_1", "attachment": "Tail_2" },
	{ "name": "Tail_1", "bone": "Tail_1", "attachment": "Tail_1" },
	{ "name": "L_eye", "bone": "L_eye", "attachment": "L_eye" },
	{ "name": "Body", "bone": "Body4", "attachment": "Body" },
	{ "name": "R_eye", "bone": "R_eye3", "attachment": "R_eye" },
	{ "name": "Mouth", "bone": "Mouth", "attachment": "Mouth" }
],
"skins": [
	{
		"name": "default",
		"attachments": {
			"Body": {
				"Body": {
					"type": "mesh",
					"uvs": [ 0.61484, 0.08819, 0.75653, 0.0762, 0.83864, 0.19205, 0.97371, 0.26262, 0.9541, 0.45263, 0.99999, 0.52852, 1, 0.68663, 0.94273, 0.77132, 0.97843, 0.85616, 0.99448, 0.96726, 0.89584, 0.99999, 0.74913, 0.99999, 0.65066, 0.97798, 0.54357, 1, 0.40616, 1, 0.23182, 0.97698, 0.06874, 0.85193, 0, 0.72676, 0, 0.52672, 0.06773, 0.3989, 0.19221, 0.28306, 0.26769, 0.13127, 0.40561, 0, 0.5036, 0, 0.08931, 0.53478, 0.08641, 0.76507, 0.23717, 0.51583, 0.24006, 0.81171, 0.38937, 0.23016, 0.6532, 0.25056, 0.8286, 0.35405, 0.42126, 0.48814, 0.42416, 0.81026, 0.69089, 0.48523, 0.68799, 0.79714, 0.95326, 0.6062, 0.85179, 0.85107, 0.73993, 0.92503, 0.84889, 0.49543, 0.84599, 0.77819 ],
					"triangles": [ 28, 21, 22, 31, 28, 29, 10, 11, 37, 12, 37, 11, 15, 27, 14, 13, 14, 32, 14, 27, 32, 34, 13, 32, 15, 16, 27, 16, 25, 27, 16, 17, 25, 27, 25, 26, 25, 24, 26, 27, 26, 32, 26, 31, 32, 32, 31, 34, 25, 17, 24, 17, 18, 24, 26, 24, 19, 24, 18, 19, 19, 20, 26, 26, 20, 31, 20, 28, 31, 34, 12, 13, 12, 34, 37, 20, 21, 28, 28, 22, 23, 0, 28, 23, 30, 29, 2, 10, 37, 36, 36, 7, 8, 34, 39, 36, 36, 39, 7, 34, 33, 39, 34, 31, 33, 7, 39, 35, 39, 33, 38, 7, 35, 6, 35, 39, 38, 35, 5, 6, 4, 35, 38, 4, 5, 35, 33, 30, 38, 38, 30, 4, 31, 29, 33, 33, 29, 30, 4, 30, 3, 30, 2, 3, 37, 34, 36, 10, 36, 8, 10, 8, 9, 29, 1, 2, 29, 0, 1, 28, 0, 29 ],
					"vertices": [ 2, 4, 121.67, -182.11, 0.60565, 10, 33.81, -18.68, 0.39435, 2, 4, 69.8, -187.86, 0.72711, 10, 62.01, -62.59, 0.27289, 2, 4, 38.56, -146.39, 0.832, 10, 38.74, -109, 0.168, 2, 4, -11.67, -121.95, 0.808, 10, 39.17, -164.86, 0.192, 1, 4, -6.31, -52.43, 1, 1, 4, -23.88, -25.18, 1, 1, 4, -25.41, 32.51, 1, 1, 4, -5.22, 63.97, 1, 2, 4, -19.13, 94.57, 0.74461, 11, 16.97, 45.44, 0.25539, 2, 4, -26.09, 134.95, 0.63327, 11, 48.68, 19.49, 0.36673, 3, 5, -118.31, 148.39, 0.63266, 10, -212.07, -265.54, 0, 11, 30.02, -13.76, 0.36734, 4, 4, 63.6, 149.28, 0.22045, 5, -64.48, 149.57, 0.54232, 10, -237.26, -217.95, 0, 11, -9.72, -50.09, 0.23722, 3, 4, 99.94, 142.2, 0.25595, 5, -28.17, 142.33, 0.74405, 10, -247.07, -182.25, 0, 3, 4, 139.02, 151.28, 0.12054, 5, 10.95, 151.23, 0.87946, 10, -272.56, -151.28, 0, 3, 4, 189.43, 152.61, 0.02883, 5, 61.36, 152.34, 0.97117, 10, -296.16, -106.71, 0, 4, 4, 253.61, 145.9, 1.1E-4, 5, 125.51, 145.34, 0.91358, 10, -318.67, -46.23, 0, 11, -155.5, -172, 0.08631, 3, 5, 186.35, 101.02, 0.97791, 10, -306.33, 28.02, 0, 11, -230.47, -178.7, 0.02209, 3, 5, 212.58, 55.9, 0.9954, 10, -277.76, 71.69, 0, 11, -279.92, -162, 0.00459, 3, 5, 214.18, -17.1, 0.99683, 10, -213.23, 105.85, 0.00317, 11, -329.18, -108.12, 0, 2, 5, 190.35, -64.29, 1, 11, -342.32, -56.91, 0, 2, 5, 145.6, -107.56, 1, 11, -337.13, 5.12, 0, 3, 5, 119.12, -163.56, 0.87328, 10, -39.7, 86.56, 0.12672, 11, -354.07, 64.7, 0, 4, 4, 199.28, -212.26, 3.9E-4, 5, 69.57, -212.57, 0.64111, 10, 26.33, 64.25, 0.35851, 11, -349.05, 134.22, 0, 3, 4, 163.33, -213.21, 0.04426, 5, 33.62, -213.36, 0.57245, 10, 43.16, 32.46, 0.38329, 2, 5, 181.34, -14.88, 0.99304, 10, -200.5, 75.51, 0.00696, 3, 5, 180.56, 69.18, 0.98774, 10, -275.28, 37.12, 0, 11, -247.08, -150.93, 0.01226, 2, 5, 127.25, -22.98, 1, 11, -267.63, -46.45, 0, 3, 5, 123.81, 84.97, 0.95143, 10, -263.94, -20.68, 0, 11, -193.97, -125.44, 0.04857, 3, 4, 203.02, -128.12, 0.01496, 5, 73.69, -128.45, 0.98504, 11, -296.76, 68.2, 0, 2, 4, 106.03, -123.23, 0.86353, 5, -23.28, -123.13, 0.13647, 2, 4, 40.68, -87.18, 0.99807, 5, -88.46, -86.78, 0.00193, 2, 4, 188.83, -34.3, 0.00894, 5, 59.92, -34.57, 0.99106, 4, 4, 184.66, 83.2, 0.03669, 5, 56.28, 82.95, 0.82719, 10, -231.86, -80.14, 0, 11, -144.46, -79.46, 0.13612, 2, 4, 89.94, -37.98, 0.95576, 5, -38.99, -37.8, 0.04424, 3, 4, 87.99, 75.86, 0.69981, 5, -40.42, 76.04, 0.30019, 10, -182.32, -163.48, 0, 2, 4, -7.49, 3.62, 0.992, 11, -51.41, 106.54, 0.008, 3, 4, 27.38, 93.94, 0.96308, 5, -100.95, 94.4, 0.03692, 10, -171.59, -225.82, 0, 3, 4, 67.7, 122.02, 0.45348, 5, -60.5, 122.29, 0.54652, 10, -214.66, -202.17, 0, 1, 4, 31.87, -35.79, 1, 3, 4, 30.21, 67.41, 0.98576, 5, -98.24, 67.85, 0.01424, 10, -149.08, -211.49, 0 ],
					"hull": 24,
					"edges": [ 36, 38, 38, 40, 40, 42, 42, 44, 44, 46, 46, 0, 0, 2, 2, 4, 4, 6, 6, 8, 8, 10, 10, 12, 12, 14, 14, 16, 16, 18, 18, 20, 20, 22, 22, 24, 24, 26, 34, 36, 34, 32, 32, 30, 26, 28, 30, 28, 38, 48, 48, 50, 50, 32, 40, 52, 52, 54, 54, 30, 40, 56, 56, 58, 58, 60, 60, 8, 56, 62, 62, 64, 64, 28, 58, 66, 66, 68, 68, 24, 8, 70, 70, 14, 14, 72, 24, 74, 74, 72, 60, 76, 76, 78, 78, 72 ],
					"width": 367,
					"height": 365
				}
			},
			"L_eye": {
				"L_eye": { "x": 1.72, "y": -0.68, "rotation": -116.57, "width": 98, "height": 94 }
			},
			"Mouth": {
				"Mouth": { "x": 126.26, "y": 2.98, "rotation": -172.21, "width": 286, "height": 175 }
			},
			"R_eye": {
				"R_eye": { "x": 5.76, "y": -4.45, "rotation": -102.99, "width": 98, "height": 94 }
			},
			"Tail_1": {
				"Tail_1": { "x": 72.33, "y": 52.92, "rotation": -9.25, "width": 163, "height": 150 }
			},
			"Tail_2": {
				"Tail_2": { "x": 64.62, "y": -38.02, "rotation": -9.25, "width": 161, "height": 112 }
			}
		}
	}
],
"animations": {
	"Idle": {
		"bones": {
			"Tail_1": {
				"rotate": [
					{ "angle": -2.95, "curve": 0.375, "c2": 0.62, "c3": 0.716 },
					{ "time": 0.1333, "angle": -3.75, "curve": 0.25, "c3": 0.75 },
					{ "time": 0.6667, "angle": 2.44, "curve": 0.243, "c3": 0.68, "c4": 0.71 },
					{ "time": 1.0667, "angle": -2.95 }
				],
				"scale": [
					{ "x": 0.962, "curve": 0.382, "c2": 0.58, "c3": 0.731 },
					{ "time": 0.2, "curve": 0.25, "c3": 0.75 },
					{ "time": 0.7333, "x": 0.842, "curve": 0.243, "c3": 0.655, "c4": 0.63 },
					{ "time": 1.0667, "x": 0.962 }
				],
				"shear": [
					{ "y": -8.65, "curve": 0.36, "c2": 0.64, "c3": 0.695 },
					{ "time": 0.0667, "y": -9.34, "curve": 0.25, "c3": 0.75 },
					{ "time": 0.6, "y": 6.98, "curve": 0.245, "c3": 0.711, "c4": 0.83 },
					{ "time": 1.0667, "y": -8.65 }
				]
			},
			"Body": {
				"rotate": [
					{ "angle": -1, "curve": 0.36, "c2": 0.64, "c3": 0.695 },
					{ "time": 0.0667, "angle": -1.01, "curve": 0.25, "c3": 0.75 },
					{ "time": 0.6, "angle": -0.81, "curve": 0.245, "c3": 0.711, "c4": 0.83 },
					{ "time": 1.0667, "angle": -1 }
				],
				"shear": [
					{ "y": -5.01, "curve": 0.25, "c3": 0.75 },
					{ "time": 0.5333, "y": 4.69, "curve": 0.25, "c3": 0.75 },
					{ "time": 1.0667, "y": -5.01 }
				]
			},
			"Body4": {
				"rotate": [
					{ "angle": -18.88, "curve": 0.375, "c2": 0.62, "c3": 0.716 },
					{ "time": 0.1333, "angle": -24.46, "curve": 0.25, "c3": 0.75 },
					{ "time": 0.6667, "angle": 18.4, "curve": 0.243, "c3": 0.68, "c4": 0.71 },
					{ "time": 1.0667, "angle": -18.88 }
				],
				"translate": [
					{ "x": 17.04, "y": 0.14, "curve": 0.36, "c2": 0.64, "c3": 0.695 },
					{ "time": 0.0667, "x": 18.06, "curve": 0.25, "c3": 0.75 },
					{ "time": 0.6, "x": -6.02, "y": 3.34, "curve": 0.245, "c3": 0.711, "c4": 0.83 },
					{ "time": 1.0667, "x": 17.04, "y": 0.14 }
				]
			},
			"Body2": {
				"rotate": [
					{ "angle": 0.23, "curve": 0.375, "c2": 0.62, "c3": 0.716 },
					{ "time": 0.1333, "curve": 0.25, "c3": 0.75 },
					{ "time": 0.6667, "angle": 1.77, "curve": 0.243, "c3": 0.68, "c4": 0.71 },
					{ "time": 1.0667, "angle": 0.23 }
				],
				"shear": [
					{ "y": -1.16, "curve": 0.36, "c2": 0.64, "c3": 0.695 },
					{ "time": 0.0667, "y": -1.58, "curve": 0.25, "c3": 0.75 },
					{ "time": 0.6, "y": 8.25, "curve": 0.245, "c3": 0.711, "c4": 0.83 },
					{ "time": 1.0667, "y": -1.16 }
				]
			},
			"Mouth": {
				"rotate": [
					{ "angle": 0.89, "curve": 0.382, "c2": 0.58, "c3": 0.731 },
					{ "time": 0.2, "curve": 0.25, "c3": 0.75 },
					{ "time": 0.7333, "angle": 3.66, "curve": 0.243, "c3": 0.655, "c4": 0.63 },
					{ "time": 1.0667, "angle": 0.89 }
				]
			},
			"R_eye3": {
				"translate": [
					{ "x": 1.85, "y": 1.46, "curve": 0.382, "c2": 0.58, "c3": 0.731 },
					{ "time": 0.2, "curve": 0.25, "c3": 0.75 },
					{ "time": 0.7333, "x": 7.65, "y": 6.02, "curve": 0.243, "c3": 0.655, "c4": 0.63 },
					{ "time": 1.0667, "x": 1.85, "y": 1.46 }
				]
			},
			"L_eye": {
				"translate": [
					{ "x": 1.85, "y": 1.46, "curve": 0.382, "c2": 0.58, "c3": 0.731 },
					{ "time": 0.2, "curve": 0.25, "c3": 0.75 },
					{ "time": 0.7333, "x": 7.65, "y": 6.02, "curve": 0.243, "c3": 0.655, "c4": 0.63 },
					{ "time": 1.0667, "x": 1.85, "y": 1.46 }
				]
			},
			"Body3": {
				"rotate": [
					{ "angle": 1.21, "curve": 0.375, "c2": 0.62, "c3": 0.716 },
					{ "time": 0.1333, "curve": 0.25, "c3": 0.75 },
					{ "time": 0.6667, "angle": 9.28, "curve": 0.243, "c3": 0.68, "c4": 0.71 },
					{ "time": 1.0667, "angle": 1.21 }
				],
				"shear": [
					{ "x": 0.75, "curve": 0.36, "c2": 0.64, "c3": 0.695 },
					{ "time": 0.0667, "curve": 0.25, "c3": 0.75 },
					{ "time": 0.6, "x": 17.73, "curve": 0.245, "c3": 0.711, "c4": 0.83 },
					{ "time": 1.0667, "x": 0.75 }
				]
			}
		}
	}
}
}