%YAML 1.1
%TAG !u! tag:unity3d.com,2011:
--- !u!114 &11400000
MonoBehaviour:
  m_ObjectHideFlags: 0
  m_CorrespondingSourceObject: {fileID: 0}
  m_PrefabInstance: {fileID: 0}
  m_PrefabAsset: {fileID: 0}
  m_GameObject: {fileID: 0}
  m_Enabled: 1
  m_EditorHideFlags: 0
  m_Script: {fileID: 11500000, guid: 9d1514134bc4fbd41bb739b1b9a49231, type: 3}
  m_Name: Grounds
  m_EditorClassIdentifier: 
  m_DefaultSprite: {fileID: 21300000, guid: beeedf5fe443d2644aa3ff482922cf44, type: 3}
  m_DefaultColliderType: 2
  m_TilingRules:
  - m_Neighbors: 0000000002000000000000000200000001000000000000000000000000000000
    m_Sprites:
    - {fileID: 21300000, guid: 95402529d37352d4289791eaca33fc19, type: 3}
    m_AnimationSpeed: 1
    m_PerlinScale: 0.5
    m_RuleTransform: 2
    m_Output: 0
    m_ColliderType: 1
    m_RandomTransform: 0
  - m_Neighbors: 0200000001000000010000000100000001000000000000000000000000000000
    m_Sprites:
    - {fileID: 21300000, guid: 79cfa436a2be459479890a6b4466c672, type: 3}
    m_AnimationSpeed: 1
    m_PerlinScale: 0.5
    m_RuleTransform: 2
    m_Output: 0
    m_ColliderType: 1
    m_RandomTransform: 0
  - m_Neighbors: 0000000002000000000000000100000002000000000000000000000000000000
    m_Sprites:
    - {fileID: 21300000, guid: 418e95f1b75ca82429f2d04e6b9c758f, type: 3}
    m_AnimationSpeed: 1
    m_PerlinScale: 0.5
    m_RuleTransform: 2
    m_Output: 0
    m_ColliderType: 1
    m_RandomTransform: 0
  - m_Neighbors: 0100000001000000020000000100000001000000000000000000000000000000
    m_Sprites:
    - {fileID: 21300000, guid: d24dec7e319f9a1428adf26ee413b2bb, type: 3}
    m_AnimationSpeed: 1
    m_PerlinScale: 0.5
    m_RuleTransform: 2
    m_Output: 0
    m_ColliderType: 1
    m_RandomTransform: 0
  - m_Neighbors: 0100000001000000010000000100000001000000000000000000000000000000
    m_Sprites:
    - {fileID: 21300000, guid: 78bbee298f549e14998b2cdb8a7ca544, type: 3}
    m_AnimationSpeed: 1
    m_PerlinScale: 0.5
    m_RuleTransform: 0
    m_Output: 0
    m_ColliderType: 1
    m_RandomTransform: 0
  - m_Neighbors: 0100000001000000020000000100000002000000000000000000000000000000
    m_Sprites:
    - {fileID: 21300000, guid: b0fde1bc73701144db1fab6188e6935d, type: 3}
    m_AnimationSpeed: 1
    m_PerlinScale: 0.5
    m_RuleTransform: 0
    m_Output: 0
    m_ColliderType: 1
    m_RandomTransform: 0
  - m_Neighbors: 0200000001000000010000000200000001000000000000000000000000000000
    m_Sprites:
    - {fileID: 21300000, guid: ca29712c42a306247a8a40fd4ed861d9, type: 3}
    m_AnimationSpeed: 1
    m_PerlinScale: 0.5
    m_RuleTransform: 0
    m_Output: 0
    m_ColliderType: 1
    m_RandomTransform: 0
