%YAML 1.1
%TAG !u! tag:unity3d.com,2011:
--- !u!114 &11400000
MonoBehaviour:
  m_ObjectHideFlags: 0
  m_CorrespondingSourceObject: {fileID: 0}
  m_PrefabInstance: {fileID: 0}
  m_PrefabAsset: {fileID: 0}
  m_GameObject: {fileID: 0}
  m_Enabled: 1
  m_EditorHideFlags: 0
  m_Script: {fileID: 11500000, guid: 9d1514134bc4fbd41bb739b1b9a49231, type: 3}
  m_Name: Pipe
  m_EditorClassIdentifier: 
  m_DefaultSprite: {fileID: 21300000, guid: 8e8ac6adf418e094dbd4fd5eaec207db, type: 3}
  m_DefaultColliderType: 1
  m_TilingRules:
  - m_Neighbors: 0000000002000000020000000000000001000000000000000100000001000000
    m_Sprites:
    - {fileID: 21300000, guid: 8e8ac6adf418e094dbd4fd5eaec207db, type: 3}
    m_AnimationSpeed: 1
    m_PerlinScale: 0.5
    m_RuleTransform: 0
    m_Output: 0
    m_ColliderType: 1
    m_RandomTransform: 0
  - m_Neighbors: 0200000002000000000000000100000000000000010000000100000000000000
    m_Sprites:
    - {fileID: 21300000, guid: f6f83c15df0241544b2be952a131ac24, type: 3}
    m_AnimationSpeed: 1
    m_PerlinScale: 0.5
    m_RuleTransform: 0
    m_Output: 0
    m_ColliderType: 1
    m_RandomTransform: 0
  - m_Neighbors: 0000000001000000000000000100000000000000000000000000000000000000
    m_Sprites:
    - {fileID: 21300000, guid: 236618824c18ef24595df780a61d8d47, type: 3}
    m_AnimationSpeed: 1
    m_PerlinScale: 0.5
    m_RuleTransform: 0
    m_Output: 0
    m_ColliderType: 1
    m_RandomTransform: 0
  - m_Neighbors: 0000000001000000000000000000000001000000000000000000000000000000
    m_Sprites:
    - {fileID: 21300000, guid: 671fe961d3217bc43b2129d562e039f4, type: 3}
    m_AnimationSpeed: 1
    m_PerlinScale: 0.5
    m_RuleTransform: 0
    m_Output: 0
    m_ColliderType: 1
    m_RandomTransform: 0
