{
"skeleton": {
	"hash": "BDWIL8JsdIU0UM8QShfYxjjlxEE",
	"spine": "3.8.99",
	"x": -167.88,
	"y": -4.99,
	"width": 357,
	"height": 289,
	"images": "./Image/",
	"audio": "D:/HiepAnim_Drive/OneDrive - DoreAzure/ThanhNN/Mario Game/E1/Image"
},
"bones": [
	{ "name": "root" },
	{ "name": "bone", "parent": "root", "length": 242.51, "rotation": -90 },
	{ "name": "bone2", "parent": "bone", "x": -153.2, "y": -2.88 },
	{ "name": "Body", "parent": "bone2", "rotation": 179.45, "x": -11.47, "y": -3.82 },
	{ "name": "Body3", "parent": "Body", "length": 43.36, "rotation": -0.17, "x": 2.49, "y": -6.68 },
	{ "name": "L_eye", "parent": "Body", "length": 45.43, "rotation": -18.96, "x": -0.04, "y": 87.61 },
	{ "name": "R_eye", "parent": "Body", "length": 44.92, "rotation": 20.3, "x": 3.64, "y": -69.54 },
	{ "name": "R_Eyebrown", "parent": "Body", "length": 63.14, "rotation": -77.56, "x": 57.99, "y": -28.91 },
	{ "name": "L_Eyebrown", "parent": "Body", "length": 57.61, "rotation": 70.75, "x": 56.1, "y": 55.09 },
	{ "name": "Mouth", "parent": "Body", "length": 62.33, "rotation": -179.95, "x": -39.27, "y": -4.37 },
	{ "name": "R_leg", "parent": "Body", "length": 75.79, "rotation": -167.9, "x": -77.26, "y": -112.06 },
	{
		"name": "R_foot",
		"parent": "R_leg",
		"length": 71.71,
		"rotation": -97.65,
		"x": 74.4,
		"y": -1.38,
		"color": "ff3f00ff"
	},
	{ "name": "L_Leg", "parent": "Body", "length": 73.19, "rotation": 161.98, "x": -82.71, "y": 60.26 },
	{ "name": "L_foot", "parent": "L_Leg", "length": 57.54, "rotation": -68.19, "x": 73.87, "y": -0.34 }
],
"slots": [
	{ "name": "R_leg", "bone": "R_leg", "attachment": "R_leg" },
	{ "name": "L_Leg", "bone": "L_Leg", "attachment": "L_Leg" },
	{ "name": "R_foot", "bone": "R_foot", "attachment": "R_foot" },
	{ "name": "L_foot", "bone": "L_foot", "attachment": "L_foot" },
	{ "name": "Mouth", "bone": "Mouth", "attachment": "Mouth" },
	{ "name": "Body", "bone": "Body3", "attachment": "Body" },
	{ "name": "R_eye", "bone": "R_eye", "attachment": "R_eye" },
	{ "name": "L_eye", "bone": "L_eye", "attachment": "L_eye" },
	{ "name": "R_Eyebrown", "bone": "R_Eyebrown", "attachment": "R_Eyebrown" },
	{ "name": "L_Eyebrown", "bone": "L_Eyebrown", "attachment": "L_Eyebrown" }
],
"skins": [
	{
		"name": "default",
		"attachments": {
			"Body": {
				"Body": { "x": 3.04, "y": -10.59, "rotation": -89.28, "width": 357, "height": 228 }
			},
			"L_Eyebrown": {
				"L_Eyebrown": { "x": 23.13, "y": -0.4, "rotation": -160.2, "width": 74, "height": 41 }
			},
			"L_Leg": {
				"L_Leg": { "x": 39.14, "y": -3.34, "rotation": 108.57, "width": 55, "height": 91 }
			},
			"L_eye": {
				"L_eye": { "x": 5.56, "y": -0.61, "rotation": -70.48, "width": 110, "height": 93 }
			},
			"L_foot": {
				"L_foot": { "x": 5.65, "y": -11.22, "rotation": 176.76, "width": 110, "height": 57 }
			},
			"Mouth": {
				"Mouth": { "x": 13.81, "y": 5.95, "rotation": 90.5, "width": 222, "height": 135 }
			},
			"R_Eyebrown": {
				"R_Eyebrown": { "x": 30.51, "y": 2.39, "rotation": -11.89, "width": 84, "height": 42 }
			},
			"R_eye": {
				"R_eye": { "x": 3.96, "y": 2.56, "rotation": -109.75, "width": 110, "height": 93 }
			},
			"R_foot": {
				"R_foot": { "x": 27.26, "y": -12.22, "rotation": 176.1, "width": 110, "height": 57 }
			},
			"R_leg": {
				"R_leg": { "x": 41.22, "y": 0.27, "rotation": 78.45, "width": 46, "height": 92 }
			}
		}
	}
],
"animations": {
	"Idle": {
		"bones": {
			"Body": {
				"translate": [
					{ "curve": 0.19, "c2": 0.35, "c3": 0.75 },
					{ "time": 0.1, "x": 6.76, "curve": 0.25, "c3": 0.892, "c4": 0.78 },
					{ "time": 0.2333, "x": 0.59, "curve": 0.25, "c3": 0.75 },
					{ "time": 0.3667, "x": -2.21, "curve": 0.375, "c2": 0.5, "c3": 0.75 },
					{ "time": 0.5, "curve": 0.19, "c2": 0.35, "c3": 0.75 },
					{ "time": 0.6, "x": 6.76, "curve": 0.25, "c3": 0.892, "c4": 0.78 },
					{ "time": 0.7333, "x": 0.59, "curve": 0.25, "c3": 0.75 },
					{ "time": 0.8667, "x": -2.21, "curve": 0.375, "c2": 0.5, "c3": 0.75 },
					{ "time": 1 }
				]
			},
			"Body3": {
				"scale": [
					{ "curve": 0.25, "c3": 0.75 },
					{ "time": 0.2333, "x": 0.956, "y": 1.024, "curve": 0.25, "c3": 0.75 },
					{ "time": 0.5, "curve": 0.25, "c3": 0.75 },
					{ "time": 0.7333, "x": 0.956, "y": 1.024, "curve": 0.25, "c3": 0.75 },
					{ "time": 1 }
				]
			},
			"R_eye": {
				"translate": [
					{ "curve": 0.25, "c3": 0.75 },
					{ "time": 0.2333, "x": -1.95, "y": -0.02, "curve": 0.25, "c3": 0.75 },
					{ "time": 0.5, "curve": 0.25, "c3": 0.75 },
					{ "time": 0.7333, "x": -1.95, "y": -0.02, "curve": 0.25, "c3": 0.75 },
					{ "time": 1 }
				]
			},
			"L_eye": {
				"translate": [
					{ "curve": 0.25, "c3": 0.75 },
					{ "time": 0.2333, "x": -1.95, "y": -0.02, "curve": 0.25, "c3": 0.75 },
					{ "time": 0.5, "curve": 0.25, "c3": 0.75 },
					{ "time": 0.7333, "x": -1.95, "y": -0.02, "curve": 0.25, "c3": 0.75 },
					{ "time": 1 }
				]
			},
			"R_Eyebrown": {
				"rotate": [
					{ "curve": 0.25, "c3": 0.75 },
					{ "time": 0.2333, "angle": 2.06, "curve": 0.25, "c3": 0.75 },
					{ "time": 0.5, "curve": 0.25, "c3": 0.75 },
					{ "time": 0.7333, "angle": 2.06, "curve": 0.25, "c3": 0.75 },
					{ "time": 1 }
				],
				"translate": [
					{ "curve": 0.25, "c3": 0.75 },
					{ "time": 0.2333, "x": -1.95, "y": -0.02, "curve": 0.25, "c3": 0.75 },
					{ "time": 0.5, "curve": 0.25, "c3": 0.75 },
					{ "time": 0.7333, "x": -1.95, "y": -0.02, "curve": 0.25, "c3": 0.75 },
					{ "time": 1 }
				]
			},
			"L_Eyebrown": {
				"rotate": [
					{ "curve": 0.25, "c3": 0.75 },
					{ "time": 0.2333, "angle": -1.81, "curve": 0.25, "c3": 0.75 },
					{ "time": 0.5, "curve": 0.25, "c3": 0.75 },
					{ "time": 0.7333, "angle": -1.81, "curve": 0.25, "c3": 0.75 },
					{ "time": 1 }
				],
				"translate": [
					{ "curve": 0.25, "c3": 0.75 },
					{ "time": 0.2333, "x": -1.95, "y": -0.02, "curve": 0.25, "c3": 0.75 },
					{ "time": 0.5, "curve": 0.25, "c3": 0.75 },
					{ "time": 0.7333, "x": -1.95, "y": -0.02, "curve": 0.25, "c3": 0.75 },
					{ "time": 1 }
				]
			},
			"Mouth": {
				"translate": [
					{ "curve": 0.25, "c3": 0.75 },
					{ "time": 0.2333, "x": -2.44, "y": -0.02, "curve": 0.25, "c3": 0.75 },
					{ "time": 0.5, "curve": 0.25, "c3": 0.75 },
					{ "time": 0.7333, "x": -2.44, "y": -0.02, "curve": 0.25, "c3": 0.75 },
					{ "time": 1 }
				]
			},
			"L_Leg": {
				"rotate": [
					{ "angle": -22.44 },
					{ "time": 0.2333, "angle": 13.71 },
					{ "time": 0.5, "angle": 59.44 },
					{ "time": 1, "angle": -22.44 }
				],
				"translate": [
					{ "time": 0.5 },
					{ "time": 0.6, "x": 20.36, "y": 0.2 },
					{ "time": 0.7333, "x": 12.5, "y": 0.12 },
					{ "time": 0.8667, "x": 14.37, "y": 0.14 },
					{ "time": 1 }
				]
			},
			"R_leg": {
				"rotate": [
					{ "angle": 42.54 },
					{ "time": 0.1, "angle": 42.51 },
					{ "time": 0.3667, "angle": -34.74 },
					{ "time": 0.5, "angle": -38.49 },
					{ "time": 0.6, "angle": -28.86 },
					{ "time": 0.7333, "angle": -9.67 },
					{ "time": 1, "angle": 42.54 }
				],
				"translate": [
					{},
					{ "time": 0.1, "x": 15.71, "y": 8.38 },
					{ "time": 0.2333, "x": 25.87, "y": 0.25 },
					{ "time": 0.3667, "x": 14.19, "y": 0.14 },
					{ "time": 0.5 }
				]
			},
			"R_foot": {
				"rotate": [
					{ "angle": -16.38 },
					{ "time": 0.1, "angle": 0.56 },
					{ "time": 0.2333, "angle": 11.52 },
					{ "time": 0.3667, "angle": 32.67 },
					{ "time": 0.5, "angle": 12.74 },
					{ "time": 0.6, "angle": 16.96 },
					{ "time": 0.7333, "angle": 9.29 },
					{ "time": 0.8667, "angle": -7.12 },
					{ "time": 1, "angle": -16.38 }
				]
			},
			"L_foot": {
				"rotate": [
					{ "angle": -1.29 },
					{ "time": 0.1, "angle": 6.72 },
					{ "time": 0.2333, "angle": -13.59 },
					{ "time": 0.3667, "angle": -31 },
					{ "time": 0.5, "angle": -39.31 },
					{ "time": 0.6, "angle": -17.84 },
					{ "time": 0.7333, "angle": -10.12 },
					{ "time": 0.8667, "angle": 0.97 },
					{ "time": 1, "angle": -1.29 }
				]
			}
		}
	}
}
}